{"count":1079,"next":"https://kudago.com/public-api/v1.4/events/?categories=tour&fields=id%2Cdates%2Ctitle%2Cslug%2Cimages%2Ctags&lang=ru&location=spb&page=2","previous":null,"results":[{"id":178324,"dates":[{"start":1558191600,"end":1558234800}],"title":"«Ночь музеев — 2019»","slug":"vyistavka-noch-muzeev-2019","images":[{"image":"https://kudago.com/media/images/event/94/49/944913d11c46545ba998db6e816f104e.jpg","source":{"name":"vk.com","link":"https://vk.com/artnight?z=photo-9685698_456241852%2Fwall-9685698_5217"}},{"image":"https://kudago.com/media/images/event/9d/8c/9d8cec3c5ff5d9bd38945e39144aabc4.jpg","source":{"name":"vk.com","link":"https://vk.com/artnight?z=photo-9685698_456241843%2Fwall-9685698_5217"}},{"image":"https://kudago.com/media/images/event/7e/bd/7ebd59153b57a3bef7bc6e9d52273e21.jpg","source":{"name":"vk.com","link":"https://vk.com/artnight?z=photo-9685698_456242111%2Fwall-9685698_5201"}},{"image":"https://kudago.com/media/images/event/9e/83/9e83e138339208d71f9d9cde449b7f8b.jpg","source":{"name":"vk.com","link":"https://vk.com/artnight?z=photo-9685698_456241431%2Fwall-9685698_5217"}},{"image":"https://kudago.com/media/images/event/d1/66/d166f0ec4a1c335e2bee0a1563dcb955.jpg","source":{"name":"vk.com","link":"https://vk.com/artnight?z=photo-9685698_456241632%2Fwall-9685698_5220"}},{"image":"https://kudago.com/media/images/event/65/23/65231dc3e992063f4a59eb18147baf7a.jpg","source":{"name":"vk.com","link":"https://vk.com/artnight?z=photo-9685698_456241355%2Fwall-9685698_5220"}},{"image":"https://kudago.com/media/images/event/11/f5/11f540e024d89ec933f9f3a4b2f6bb3c.jpg","source":{"name":"vk.com","link":"https://vk.com/artnight?z=photo-9685698_456241678%2Fwall-9685698_5201"}},{"image":"https://kudago.com/media/images/event/74/49/74498b8ebf522ee6f3cea3efaf06a6a1.jpg","source":{"name":"vk.com","link":"https://vk.com/artnight?z=photo-9685698_456242014%2Fwall-9685698_5201"}},{"image":"https://kudago.com/media/images/event/75/1d/751dc03d0b6024583745f9c705cd834b.jpg","source":{"name":"vk.com","link":"https://vk.com/artnight?z=photo-9685698_456242236%2Fwall-9685698_5201"}}],"tags":["история","искусство","лучший фестиваль","ночь музеев в петербурге","гуманитарные науки","тематические","фестивали","экскурсии","городские","выставки","детям","ночь"]},{"id":176436,"dates":[{"start":1548572400,"end":1548622799},{"start":1580072400,"end":1580158800}],"title":"День снятия блокады Ленинграда","slug":"aktsiya-75-let-bez-blokadyi","images":[{"image":"https://kudago.com/media/images/event/77/ca/77ca630761fcfaddd8e9a1f5633f63f8.jpg","source":{"name":"tagilcity.ru","link":"https://tagilcity.ru/news/society/28-01-2018/rossiyane-otmetili-den-snyatiya-blokady-leningrada-aktsiyami-i-salyutom-foto"}},{"image":"https://kudago.com/media/images/event/ba/11/ba11996c8177edafec10c6f5f063997a.jpg","source":{"name":"wwii.space","link":"http://wwii.space/%D1%84%D0%BE%D1%82%D0%BE-%D1%81%D1%81%D1%81%D1%80-%D0%BB%D0%B5%D0%BD%D0%B8%D0%BD%D0%B3%D1%80%D0%B0%D0%B4-%D0%B2%D0%BE-%D0%B2%D1%80%D0%B5%D0%BC%D1%8F-%D0%B2%D0%BE%D0%B9%D0%BD%D1%8B/6/"}},{"image":"https://kudago.com/media/images/event/27/c7/27c7c400e000baf780de05d005fcbc28.jpg","source":{"name":"govza.ru","link":"http://govza.ru/2017/01/28/blokadnyj-leningrad/"}},{"image":"https://kudago.com/media/images/event/cf/74/cf74c946754dbd667b7501456eef914a.jpg","source":{"name":"waralbum.ru","link":"http://waralbum.ru/185932/"}},{"image":"https://kudago.com/media/images/event/bb/39/bb39bdfa8c06678d5aed7f4f9a926d92.jpg","source":{"name":"taksi.bz","link":"https://taksi.bz/news/18-janvarja--godovschina-proryva-blokady"}},{"image":"https://kudago.com/media/images/event/dc/64/dc64cad449bd16566c37a43c387619cf.jpg","source":{"name":"kykyryzo.ru","link":"http://kykyryzo.ru/%D0%B1%D0%BB%D0%BE%D0%BA%D0%B0%D0%B4%D0%BD%D1%8B%D0%B9-%D0%BB%D0%B5%D0%BD%D0%B8%D0%BD%D0%B3%D1%80%D0%B0%D0%B4/"}}],"tags":["встречи","обучение","тематические праздники","развлечения","фестивали","всей семьей","городские","акции и скидки","free","выставки","экскурсии","квесты"]},{"id":179108,"dates":[{"start":1556694000,"end":1556726580}],"title":"фестиваль бесплатных экскурсий «Парадные Петроградской»","slug":"festival-festival-paradnyih-2019","images":[{"image":"https://kudago.com/media/images/event/9e/5b/9e5bde65cc3fa4e61dcf043219a1ef33.jpg","source":{"name":"vk.com","link":"https://vk.com/festival.may.modern"}},{"image":"https://kudago.com/media/images/event/9c/4c/9c4cd9bc4c079390d61fdfa024e768b0.jpg","source":{"name":"vk.com","link":"https://vk.com/festival.may.modern"}},{"image":"https://kudago.com/media/images/event/e8/8c/e88c9d5a35de053ae2aebf549e481641.jpg","source":{"name":"vk.com","link":"https://vk.com/festival.may.modern"}},{"image":"https://kudago.com/media/images/event/72/7a/727a8d9db3a625252b414c88fcd291f1.jpg","source":{"name":"vk.com","link":"https://vk.com/festival.may.modern"}}],"tags":["фестивали","тематические","лучшее в мае","городские","праздник весны и труда","авторские","6+","free","экскурсии","пешеходные"]},{"id":89124,"dates":[{"start":1439622000,"end":1439661600},{"start":1439708400,"end":1439748000}],"title":"юбилей Ленинградского зоопарка","slug":"yubilej-leningradskogo-zooparka","images":[{"image":"https://kudago.com/media/images/event/3d/e8/3de80d81687f6bff14a91dbae20fd2ee.jpeg","source":{"name":"debotaniki.ru","link":"http://www.debotaniki.ru/2012/08/12-avgusta-den-rozhdeniya-leningradskogo-zooparka/"}},{"image":"https://kudago.com/media/images/event/a5/5f/a55fbaea31c1e5df3f41993d38821ad6.jpg","source":{"name":"pavluhinoleg.livejournal.com","link":"http://pavluhinoleg.livejournal.com/24088.html"}},{"image":"https://kudago.com/media/images/event/00/21/00218b6739cde8451a8cfcad6273e1c5.jpg","source":{"name":"urix.ru","link":"http://urix.ru/content/fotografii/leningradskiy-zoopark-sbornik"}},{"image":"https://kudago.com/media/images/event/c4/1d/c41d40c66ca9961b88289b08694fc90a.jpg","source":{"name":"lenexpo.ru","link":"http://lenexpo.ru/node/58279?from=57"}},{"image":"https://kudago.com/media/images/event/aa/d2/aad260be58bcfcab2566e8a13b331fe5.jpg","source":{"name":"drugoi.livejournal.com","link":"http://drugoi.livejournal.com/2654134.html"}}],"tags":["история","обучение","фестивали","тематические","лучшее","городские","детям","экскурсии"]},{"id":86114,"dates":[{"start":1436018400,"end":1436727600}],"title":"Международный архитектурный фестиваль Yarkyfest","slug":"mezhdunarodnyj-arhitekturnyj-festival-yarkyfest","images":[{"image":"https://kudago.com/media/images/event/f3/cb/f3cb4101e4719d04b99909c45d46298c.jpg","source":{"name":"ВКонтакте","link":"https://vk.com/album-81912198_207163416"}},{"image":"https://kudago.com/media/images/event/8b/15/8b159e04d11e40861a5bbc0a52330878.jpg","source":{"name":"ВКонтакте","link":"https://vk.com/album-81912198_207163416"}},{"image":"https://kudago.com/media/images/event/ec/72/ec727ad9661f58577fd4e9221fb7dc86.jpg","source":{"name":"ВКонтакте","link":"https://vk.com/album-81912198_207163416"}},{"image":"https://kudago.com/media/images/event/f2/57/f257f2cf5960a426666127cc8943f9fa.jpg","source":{"name":"ВКонтакте","link":"https://vk.com/album-81912198_207163416"}},{"image":"https://kudago.com/media/images/event/0c/d9/0cd9c152748ea5feb774f91b83f60315.jpg","source":{"name":"ВКонтакте","link":"https://vk.com/album-81912198_207163416"}},{"image":"https://kudago.com/media/images/event/3f/9b/3f9b15c473022651acd653a18737a775.jpg","source":{"name":"ВКонтакте","link":"https://vk.com/album-81912198_207163416"}},{"image":"https://kudago.com/media/images/event/dc/f7/dcf78e2ecf6bc9cf9626450d57a4d806.jpg","source":{"name":"ВКонтакте","link":"https://vk.com/album-81912198_207163416"}},{"image":"https://kudago.com/media/images/event/59/dd/59ddc91b968937090a550f661117a06e.jpg","source":{"name":"ВКонтакте","link":"https://vk.com/yarkyfest"}},{"image":"https://kudago.com/media/images/event/90/6a/906a070f4b33515533900aa82c5c7c65.jpg","source":{"name":"ВКонтакте","link":"https://vk.com/yarkyfest"}}],"tags":["обучение","искусство","фестивали","детям","лучшее","детские","городские","интерактивные","архитектура и дизайн","презентации","автобусные","события для бизнеса","дизайн","free","6+","выставки","повышение квалификации","экскурсии"]},{"id":82319,"dates":[{"start":1433080800,"end":1433091600}],"title":"открытие сезона образовательных пикников «Трава»","slug":"otkrytie-sezona-obrazovatelnyh-piknikov-trava","images":[{"image":"https://kudago.com/media/images/event/52/cc/52cc2dcae2253c0d19873ac1ba0824e3.jpg","source":{"name":"ВКонтакте","link":"https://vk.com/wall-71870427_601"}},{"image":"https://kudago.com/media/images/event/a3/2c/a32c99db535901f7c05ace78a3fa62b6.jpg","source":{"name":"ВКонтакте","link":"https://vk.com/wall-71870427_601"}},{"image":"https://kudago.com/media/images/event/52/a4/52a4fa9c95ab92950fb95f5be318b4c8.jpg","source":{"name":"ВКонтакте","link":"https://vk.com/wall-71870427_601"}},{"image":"https://kudago.com/media/images/event/35/42/35422c0bda4ddbf50aa78a305fbbab24.jpg","source":{"name":"ВКонтакте","link":"https://vk.com/wall-71870427_601"}},{"image":"https://kudago.com/media/images/event/da/3c/da3c8e84a1333e8d2a2f713c8887b7b3.jpg","source":{"name":"ВКонтакте","link":"https://vk.com/wall-71870427_601"}},{"image":"https://kudago.com/media/images/event/54/e9/54e9b2aa972e6bf22a1f3473029785f5.jpg","source":{"name":"ВКонтакте","link":"https://vk.com/wall-71870427_601"}}],"tags":["встречи","естественные науки","обучение","лучшее","16+","рисунок, иллюстрация","экскурсии","пешеходные"]},{"id":76003,"dates":[{"start":1435996800,"end":1436040000}],"title":"День Достоевского","slug":"den-dostoevskogo","images":[{"image":"https://kudago.com/media/images/event/c2/2f/c22f526c84ff69b11ddeae84dc931270.jpg","source":{"name":"littleone.ru","link":"http://www.littleone.ru/pnews/1274656460"}},{"image":"https://kudago.com/media/images/event/00/cb/00cb49262175b687a159c4c4eac7e6dc.jpg","source":{"name":"ВКонтакте","link":"https://vk.com/dostoevskyday"}},{"image":"https://kudago.com/media/images/event/89/0b/890b3d6621ea3aa110b735eacae3877a.jpg","source":{"name":"huffingtonpost.es","link":"http://www.huffingtonpost.es/2014/05/24/psicologia-humana-san-petersburgo_n_5378153.html"}},{"image":"https://kudago.com/media/images/event/d0/1e/d01eba5b50de70be7b09ff04252e8d1f.JPG","source":{"name":"Музей Ф.М. Достоевского","link":"http://www.md.spb.ru/museum/"}},{"image":"https://kudago.com/media/images/event/37/54/37542ff5b3be24396cc768e82112e4f6.jpg","source":{"name":"philologist.livejournal.com","link":"http://philologist.livejournal.com/6429704.html"}},{"image":"https://kudago.com/media/images/event/b0/f0/b0f01827d2c6098a6fcfb496d4fac062.JPG","source":{"name":"Музей Ф.М. Достоевского","link":"http://www.md.spb.ru/museum/"}},{"image":"https://kudago.com/media/images/event/2f/2d/2f2d9e8dbba7a2d4de65953524df050b.jpg","source":{"name":"ВКонтакте","link":"https://vk.com/dostoevskyday"}},{"image":"https://kudago.com/media/images/event/06/05/060529917a90a1a1ccdec7cde139f97e.jpg","source":{"name":"huffingtonpost.es","link":"http://www.huffingtonpost.es/2014/05/24/psicologia-humana-san-petersburgo_n_5378153.html"}},{"image":"https://kudago.com/media/images/event/38/28/3828ba95bf007ed92385b3dd4bdcca83.jpg","source":{"name":"huffingtonpost.es","link":"http://www.huffingtonpost.es/2014/05/24/psicologia-humana-san-petersburgo_n_5378153.html"}},{"image":"https://kudago.com/media/images/event/53/05/5305531e410a137225135640cb0e3433.jpg","source":{"name":"ВКонтакте","link":"https://vk.com/dostoevskyday2015"}},{"image":"https://kudago.com/media/images/event/f3/57/f3573ea70c1adce48a480db7793fbd33.jpg","source":{"name":"Музей Ф.М. Достоевского","link":"https://vk.com/dostoevskyday2015"}},{"image":"https://kudago.com/media/images/event/80/1f/801f3e868324176d07fee51cd13e0cb2.jpg","source":{"name":"Музей Ф.М. Достоевского","link":"https://vk.com/dostoevskyday2015"}}],"tags":["open air","фестивали","тематические","спектакли","городские","6+","free","лучшее в театрах","экскурсии"]},{"id":173536,"dates":[{"start":1539417600,"end":1539504000}],"title":"Юбилей Невского проспекта: где побывать и что посмотреть","slug":"kontsert-yubilej-nevskogo-prospekta","images":[{"image":"https://kudago.com/media/images/event/af/8b/af8bd6a0fe3a6a7e03a9b19c4381ad37.jpg","source":{"name":"cityguide-spb.ru","link":"https://cityguide-spb.ru/kak-zaplanirovat/poleznaya-informaciya/turisticheskiy-centr/nevskiy-prospekt-v-sankt-peterburge/"}},{"image":"https://kudago.com/media/images/event/08/e7/08e7d9b71756336f9a378a4954ee78f1.jpg","source":{"name":"hostelinfo.ru","link":"http://hostelinfo.ru/dostoprimechatelnosti-sankt-peterburga/nevskiy-prospekt.html"}},{"image":"https://kudago.com/media/images/event/ca/af/caaf07e695953f6dd0fa54a5ab253a84.jpg","source":{"name":"www.photosight.ru","link":"http://www.photosight.ru/photos/5482119/"}},{"image":"https://kudago.com/media/images/event/6f/8e/6f8ee797ac6273083964cf06cce346d8.jpg","source":{"name":"nat-geo.ru","link":"http://www.nat-geo.ru/photo/816753/"}},{"image":"https://kudago.com/media/images/event/8d/47/8d472ede921ca2cbefe095c67a07ca80.jpg","source":{"name":"www.skyscrapercity.com","link":"https://www.skyscrapercity.com/showthread.php?t=1029945&page=76"}},{"image":"https://kudago.com/media/images/event/55/67/55670e8f74ee2c02a9bfa40550adeb92.jpg","source":{"name":"www.photosight.ru","link":"http://www.photosight.ru/photos/5088478/"}}],"tags":["фестивали","тематические","праздники","городские","концерты","free","классическая","экскурсии"]},{"id":164600,"dates":[{"start":1514649600,"end":1514660400},{"start":1514908800,"end":1514919600},{"start":1514995200,"end":1515006000},{"start":1515081600,"end":1515092400},{"start":1515168000,"end":1515178800},{"start":1515254400,"end":1515265200},{"start":1515340800,"end":1515351600}],"title":"автобусная экскурсия «Новогодний Петербург» от «Системы города»","slug":"ekskursiya-novogodnij-peterburg-2017","images":[{"image":"https://kudago.com/media/images/event/e3/b5/e3b5dc50f53481bedae28693116fa650.jpg","source":{"name":"","link":""}},{"image":"https://kudago.com/media/images/event/58/50/5850494400601dee86177731578e5c6b.jpg","source":{"name":"","link":""}},{"image":"https://kudago.com/media/images/event/52/bc/52bce8be0fa1db96b5466d1277125628.jpg","source":{"name":"","link":""}},{"image":"https://kudago.com/media/images/event/1a/bb/1abbee6d3a6ce39cb45c30a03590f27b.jpg","source":{"name":"","link":""}},{"image":"https://kudago.com/media/images/event/4e/15/4e15061ca8e39a879797be3b4ca4c406.jpg","source":{"name":"","link":""}},{"image":"https://kudago.com/media/images/event/e2/a4/e2a4a1aece54cda718bd37d3722a2f1c.jpg","source":{"name":"","link":""}}],"tags":["игры (развлечения)","развлечения","обзорные","тематические","автобусные","12+","экскурсии"]},{"id":105176,"dates":[{"start":1451588400,"end":1451617200},{"start":1483210800,"end":1483326000},{"start":1514743200,"end":1514775600},{"start":1546279200,"end":1546311600},{"start":1577815200,"end":1577847600}],"title":"«Новогодняя ночь по-питерски» с проектом «Ползком по Питеру»","slug":"novogodnyaya-noch-po-piterski-s-proektom-polzkom-p","images":[{"image":"https://kudago.com/media/images/event/39/4a/394ae84f1deb690d1a6e9c97bc27f2da.jpg","source":{"name":"","link":""}},{"image":"https://kudago.com/media/images/event/7e/45/7e45de6238bab01f52053781907c9116.jpg","source":{"name":"","link":""}},{"image":"https://kudago.com/media/images/event/3f/cf/3fcf3bdf5209d5336441202268356e6e.jpg","source":{"name":"","link":""}}],"tags":["развлечения","шоу (развлечения)","новый год 2020","ночная жизнь","18+","новогодняя ночь","экскурсии"]},{"id":176100,"dates":[{"start":1545980400,"end":1549216800}],"title":"выставка «Клод Моне — гений импрессионизма»","slug":"vyistavka-klod-mone---genij-impressionizma","images":[{"image":"https://kudago.com/media/images/event/2a/e9/2ae9e4763c0c0046447099eed195756a.jpg","source":{"name":"","link":""}},{"image":"https://kudago.com/media/images/event/7d/e6/7de62a7edb6e13508907a94498dee032.jpg","source":{"name":"","link":""}},{"image":"https://kudago.com/media/images/event/53/31/5331a871ae9babbbcbbbe1cdfe20a05d.jpg","source":{"name":"","link":""}},{"image":"https://kudago.com/media/images/event/d0/ba/d0ba1e045664391e7c2595f513c28dec.jpg","source":{"name":"","link":""}},{"image":"https://kudago.com/media/images/event/89/90/8990df303de6f799319cbfac6dfa66aa.jpg","source":{"name":"","link":""}},{"image":"https://kudago.com/media/images/event/c4/c3/c4c3c331e20338b9a941a1ef8064cb89.jpg","source":{"name":"","link":""}},{"image":"https://kudago.com/media/images/event/3b/c2/3bc2d685a4bb99c37ce1d30512187a1e.jpg","source":{"name":"","link":""}},{"image":"https://kudago.com/media/images/event/57/e7/57e74806e8fc6f5800415cdf4406799a.jpg","source":{"name":"","link":""}},{"image":"https://kudago.com/media/images/event/26/d1/26d11a95e2c364218eb7dae067091d26.jpg","source":{"name":"","link":""}},{"image":"https://kudago.com/media/images/event/5e/83/5e839ef0c25f1e72d49279f445946ad0.jpg","source":{"name":"","link":""}},{"image":"https://kudago.com/media/images/event/f7/16/f71652649f89a59c15fbbd6d49735bd7.jpg","source":{"name":"","link":""}},{"image":"https://kudago.com/media/images/event/8a/64/8a6446dcf329ca9cbda3a40027984d91.jpg","source":{"name":"","link":""}}],"tags":["культура и искусство","импрессионизм","интересное","новое на сайте","красиво","картины, живопись, графика","выставки","экскурсии"]},{"id":174849,"dates":[{"start":1545836400,"end":1545847200},{"start":1546009200,"end":1546020000},{"start":1546700400,"end":1546711200}],"title":"экскурсия «Загадки Нового года»","slug":"ekskursiya-zagadki-novogo-goda","images":[{"image":"https://kudago.com/media/images/event/0b/55/0b55ff58963ba0fce774ef906c072949.jpg","source":{"name":"shutterstock.com","link":""}},{"image":"https://kudago.com/media/images/event/55/35/55351203b5fcaebc933ec3a5d013b180.jpg","source":{"name":"shutterstock.com","link":""}},{"image":"https://kudago.com/media/images/event/9f/8b/9f8b4b420076fb777e8b9d607618b5d3.jpg","source":{"name":"shutterstock.com","link":""}},{"image":"https://kudago.com/media/images/event/dc/46/dc46b756b79f73b49339b99df81d4217.jpg","source":{"name":"shutterstock.com","link":""}}],"tags":["обзорные","дед мороз","тематические","новогодние путешествия и экскурсии","новое на сайте","экскурсии для детей","автобусные","12+","экскурсии"]},{"id":176049,"dates":[{"start":1546502400,"end":1547402400}],"title":"новогодние каникулы в Музее оптики","slug":"detyam-novogodnie-kanikulyi-v-muzee-optiki","images":[{"image":"https://kudago.com/media/images/event/76/83/7683c2672b87e66cf882be0558d0c0d5.jpg","source":{"name":"","link":""}},{"image":"https://kudago.com/media/images/event/d6/e3/d6e3649771125ad0fa038d174df93621.jpg","source":{"name":"","link":""}},{"image":"https://kudago.com/media/images/event/da/68/da68b759195a9fd787412cdd7d56da75.jpg","source":{"name":"","link":""}},{"image":"https://kudago.com/media/images/event/73/6d/736d00f3d567fc4bc926c0669848b7cc.jpg","source":{"name":"","link":""}},{"image":"https://kudago.com/media/images/event/74/84/748416eaaba1154e33da29318b18b2ba.jpg","source":{"name":"","link":""}},{"image":"https://kudago.com/media/images/event/07/e3/07e3889572f35b80f3ec7b669cb919b5.jpg","source":{"name":"","link":""}},{"image":"https://kudago.com/media/images/event/a2/1f/a21f0cab9ff53e5ad618ff4ca4e42c7f.jpg","source":{"name":"","link":""}},{"image":"https://kudago.com/media/images/event/ae/5f/ae5fec7464edfdb175bc49f1126375e7.jpg","source":{"name":"","link":""}},{"image":"https://kudago.com/media/images/event/f9/1e/f91ea44ab101e9561f27251c62e46c8b.jpg","source":{"name":"","link":""}},{"image":"https://kudago.com/media/images/event/85/f2/85f255b96ff4c9abc3236ed0f01f02b1.jpg","source":{"name":"","link":""}},{"image":"https://kudago.com/media/images/event/67/e9/67e9111dd3672e85bf8a7ebabdff0471.JPG","source":{"name":"","link":""}},{"image":"https://kudago.com/media/images/event/e1/78/e178315dd8098e643b2e3baba1fb8394.jpg","source":{"name":"","link":""}}],"tags":["научное шоу","экскурсии","новый год 2020","новое на сайте","зимние каникулы","6+","детям","новогодние праздники"]},{"id":183995,"dates":[{"start":1574370000,"end":1575838800}],"title":"выставка STENOGRAFFIA X","slug":"vyistavka-stenograffia-x","images":[{"image":"https://kudago.com/media/images/event/2c/89/2c8943abb3c7374255bfbac41bd4c754.jpg","source":{"name":"","link":""}},{"image":"https://kudago.com/media/images/event/a0/b4/a0b48ceb600d5c355177db9dd372a815.jpg","source":{"name":"","link":""}},{"image":"https://kudago.com/media/images/event/fd/9e/fd9e3ed0acf233713432101d54ebeb09.JPG","source":{"name":"","link":""}},{"image":"https://kudago.com/media/images/event/cd/13/cd136d695c6bc66c38d58ee69115b044.jpg","source":{"name":"","link":""}},{"image":"https://kudago.com/media/images/event/98/75/9875afe375652c54be8be248ffac40f9.jpg","source":{"name":"","link":""}},{"image":"https://kudago.com/media/images/event/7d/19/7d19641198a79669f65daa02f8a305ef.jpg","source":{"name":"","link":""}},{"image":"https://kudago.com/media/images/event/64/a3/64a372e181dd298d17699de03a3ceaef.jpg","source":{"name":"","link":""}},{"image":"https://kudago.com/media/images/event/36/a7/36a7cd914d1d40573c8677c4706e8cb5.jpg","source":{"name":"","link":""}},{"image":"https://kudago.com/media/images/event/0e/4c/0e4c9b499b8dd16a96ca9297b886c3e7.jpg","source":{"name":"","link":""}}],"tags":["современное искусство","новые технологии","мультимедиа","стрит-арт","новое на сайте","18+","граффити","free","выставки","экскурсии"]},{"id":174063,"dates":[{"start":1546182000,"end":1546182000},{"start":1546268400,"end":1546268400},{"start":1546441200,"end":1546441200},{"start":1546527600,"end":1546527600},{"start":1546614000,"end":1546614000},{"start":1546786800,"end":1546786800},{"start":1576936800,"end":1576936800},{"start":1577109600,"end":1577109600},{"start":1577278800,"end":1577278800},{"start":1577628000,"end":1577628000},{"start":1577714400,"end":1577714400},{"start":1578060000,"end":1578060000},{"start":1578146400,"end":1578146400},{"start":1578232800,"end":1578232800},{"start":1578319200,"end":1578319200},{"start":1578405600,"end":1578405600}],"title":"экскурсия «Традиции Нового года и Рождества в Санкт-Петербурге»","slug":"ekskursiya-traditsii-novogo-goda-i-rozhdestva-v-sankt-peterburge-dekabr-2018","images":[{"image":"https://kudago.com/media/images/event/67/a8/67a859f288ae7e50c2ac2397fabdf641.jpg","source":{"name":"","link":""}},{"image":"https://kudago.com/media/images/event/a3/c7/a3c775f04b6528792c8b6f2395f365bd.jpg","source":{"name":"","link":""}},{"image":"https://kudago.com/media/images/event/40/80/408009f04dbfaa62c13566f220774777.jpg","source":{"name":"","link":""}}],"tags":["тематические","всей семьей","новый год 2020","новогодние путешествия и экскурсии","рождество","новое на сайте","6+","традиции","экскурсии","пешеходные"]},{"id":184033,"dates":[{"start":1573894800,"end":1573894800},{"start":1573981200,"end":1573981200},{"start":1574499600,"end":1574499600},{"start":1575799200,"end":1575799200},{"start":1576314000,"end":1576314000},{"start":1576404000,"end":1576404000},{"start":1576922400,"end":1576922400},{"start":1577095200,"end":1577095200},{"start":1577278800,"end":1577278800},{"start":1577613600,"end":1577613600},{"start":1577696400,"end":1577696400},{"start":1578042000,"end":1578042000},{"start":1578128400,"end":1578128400},{"start":1578214800,"end":1578214800},{"start":1578304800,"end":1578304800},{"start":1578387600,"end":1578387600}],"title":"праздничные и таинственные экскурсии, которые стоит посетить зимой","slug":"prazdnik-prazdnichnyie-i-tainstvennyie-ekskursii","images":[{"image":"https://kudago.com/media/images/event/bf/57/bf57785f83b1122f0fb488de95f4cef6.jpg","source":{"name":"shutterstock.com","link":""}},{"image":"https://kudago.com/media/images/event/72/3b/723b42a3333f8d9a5154139bf018c063.jpg","source":{"name":"shutterstock.com","link":""}},{"image":"https://kudago.com/media/images/event/ff/0f/ff0f21484d587413bd925ea07a888b59.jpg","source":{"name":"shutterstock.com","link":""}},{"image":"https://kudago.com/media/images/event/9c/dd/9cddf50d542059ede2e1f3c976247f53.jpg","source":{"name":"shutterstock.com","link":""}}],"tags":["история","обзорные","тематические","всей семьей","праздники","новый год 2020","новогодние путешествия и экскурсии","новое на сайте","автобусные","16+","экскурсии","пешеходные","туристам"]},{"id":169409,"dates":[{"start":1525122000,"end":1529614800}],"title":"выставка «Босх и Брейгель. Мистические образы и тайны» в лофте «Этажи»","slug":"vyistavka-misticheskie-obrazyi-i-tajnyi","images":[{"image":"https://kudago.com/media/images/event/1b/24/1b24652892db9e4b070bce36d53c092d.jpg","source":{"name":"","link":""}},{"image":"https://kudago.com/media/images/event/7d/ae/7dae2a09af0d8f26e0d0084b78470a9d.jpg","source":{"name":"","link":""}},{"image":"https://kudago.com/media/images/event/fc/69/fc69710b6a646fd95bb348db85ab485c.jpg","source":{"name":"","link":""}},{"image":"https://kudago.com/media/images/event/34/65/3465a58ec8f5bcb936ef73076642e338.jpg","source":{"name":"","link":""}},{"image":"https://kudago.com/media/images/event/c5/92/c5928bd2d9d1545658a6e4405e685082.jpg","source":{"name":"","link":""}},{"image":"https://kudago.com/media/images/event/f2/a4/f2a4121b82bf210140dc51a08e03b485.jpg","source":{"name":"","link":""}},{"image":"https://kudago.com/media/images/event/17/14/1714df90de7d02cb1ceae10af68837ff.jpg","source":{"name":"","link":""}},{"image":"https://kudago.com/media/images/event/84/63/8463f73ec1f14cd11fc7d453aa3241ef.jpg","source":{"name":"","link":""}},{"image":"https://kudago.com/media/images/event/69/85/698540e07b3177fd4a66d0f1d6e8dd7b.jpg","source":{"name":"","link":""}},{"image":"https://kudago.com/media/images/event/86/10/8610e017a403e196aa53b341fa4e71b3.jpg","source":{"name":"","link":""}},{"image":"https://kudago.com/media/images/event/a9/d3/a9d3885644df7cbab2da2c75e2af4072.jpg","source":{"name":"","link":""}},{"image":"https://kudago.com/media/images/event/88/de/88de0ac31399d4c48146bdee473db7e6.jpg","source":{"name":"","link":""}}],"tags":["тематические","экскурсии","с друзьями","новое на сайте","выходные","в свободное время","6+","картины, живопись, графика","выставки","с девушкой","мистика"]},{"id":170826,"dates":[{"start":1529992800,"end":1532887200},{"start":-62135433000,"end":1534701600}],"title":"выставка «Неизвестный Ван Гог»","slug":"vyistavka-neizvestnyij-van-gog","images":[{"image":"https://kudago.com/media/images/event/c5/9b/c59b0fd77a86ebf1ede34493fd463370.jpg","source":{"name":"","link":""}},{"image":"https://kudago.com/media/images/event/dc/48/dc4826989ef8ecc4ae07c6356dd6b4e3.jpg","source":{"name":"","link":""}}],"tags":["культура и искусство","с друзьями","новое на сайте","выходные","красиво","картины, живопись, графика","выставки","экскурсии"]},{"id":180346,"dates":[{"start":1562313600,"end":1562400000}],"title":"День Достоевского — 2019","slug":"detyam-den-dostoevskogo---2019","images":[{"image":"https://kudago.com/media/images/event/94/73/9473351af47cf4827f03740ce09bbc7c.jpg","source":{"name":"vk.com","link":"https://vk.com/albums-90629928?z=photo-90629928_456240731%2Fphotos-90629928"}},{"image":"https://kudago.com/media/images/event/bc/33/bc33fc2e7e708a392fd9db0296262549.jpg","source":{"name":"vk.com","link":"https://vk.com/photo-90629928_456240152"}},{"image":"https://kudago.com/media/images/event/97/f6/97f67127c224e8e3eacad58d856c8b5c.jpg","source":{"name":"vk.com","link":"https://vk.com/photo-90629928_456239970"}},{"image":"https://kudago.com/media/images/event/5b/a4/5ba40c4ed3bff20dc7235067c4d2c1df.jpg","source":{"name":"vk.com","link":"https://vk.com/photo-90629928_456239953"}},{"image":"https://kudago.com/media/images/event/7c/3c/7c3cd5903e9b5110d96479fec979767e.jpg","source":{"name":"vk.com","link":"https://vk.com/albums-90629928?z=photo-90629928_456240845%2Fphotos-90629928"}},{"image":"https://kudago.com/media/images/event/26/af/26afcb7eb1434770e6f06f42084c3945.jpg","source":{"name":"vk.com","link":"https://vk.com/photo-90629928_456240131"}},{"image":"https://kudago.com/media/images/event/6e/b7/6eb7df08c1bc1e332ef105ffa5bb4586.jpg","source":{"name":"vk.com","link":"https://vk.com/photo-90629928_456240120"}},{"image":"https://kudago.com/media/images/event/90/7c/907c64c9c45f00271a822b79c2d66132.jpg","source":{"name":"vk.com","link":"https://vk.com/photo-90629928_456240123"}},{"image":"https://kudago.com/media/images/event/cd/aa/cdaab8da107cd19d6a6caf253d7ba12e.jpg","source":{"name":"vk.com","link":"https://vk.com/photo-90629928_456239886"}}],"tags":["open air","развлечения","фестивали","детям","тематические","шоу (развлечения)","праздники","городские","free","главные события лета","экскурсии","пешеходные"]},{"id":176860,"dates":[{"start":1549638000,"end":1549641600},{"start":1550242800,"end":1550246400}],"title":"тематическая программа «Романтичный февраль» в музейном комплексе «Вселенная Воды»","slug":"znaniya-romantichnyij-fevral","images":[{"image":"https://kudago.com/media/images/event/de/d3/ded32e1f099723cd6a9e9407bfa80315.jpg","source":{"name":"","link":""}},{"image":"https://kudago.com/media/images/event/5c/9a/5c9aa5201493b959c5e9408bfcd0b571.jpg","source":{"name":"","link":""}}],"tags":["обучение","с парнем","тематические","всей семьей","экскурсии","романтичные места и события","новое на сайте","6+","с девушкой"]}]}